---
http_interactions:
- request:
    method: get
    uri: https://simonneutert.papierkram.de/api/v1/expense/vouchers?page=1&page_size=10
    body:
      encoding: US-ASCII
      string: ''
    headers:
      User-Agent:
      - Faraday v2.7.4
      Authorization:
      - Bearer <API BEARER>
  response:
    status:
      code: 200
      message: OK
    headers:
      content-type:
      - application/json; charset=utf-8
      status:
      - 200 OK
      cache-control:
      - no-store
      access-control-allow-origin:
      - "*"
      vary:
      - Accept
      referrer-policy:
      - strict-origin-when-cross-origin
      x-remaining-quota:
      - '8775'
      x-permitted-cross-domain-policies:
      - none
      pragma:
      - no-cache
      x-request-id:
      - 0b0aa91a-4c29-4ce6-b958-b142b93dd1a4
      x-download-options:
      - noopen
      etag:
      - W/"bceb56118abfd16b414df526e46fb8a9"
      x-frame-options:
      - SAMEORIGIN
      x-runtime:
      - '0.186357'
      expires:
      - Fri, 01 Jan 1990 00:00:00 GMT
      date:
      - Sun, 16 Apr 2023 11:20:49 GMT
      set-cookie:
      - redis_session_store=<UNICORN>; path=/; expires=Sun, 30 Apr 2023 11:20:49 GMT;
        HttpOnly; SameSite=Lax
      x-powered-by:
      - Phusion Passenger(R) 6.0.15
      server:
      - nginx/1.18.0 + Phusion Passenger(R) 6.0.15
      x-version:
      - STABLE
      x-robots-tag:
      - noindex, nofollow;
      strict-transport-security:
      - max-age=31536000; includeSubdomains;;
      x-xss-protection:
      - 1; mode=block;
      x-content-type-options:
      - nosniff;
      x-debug-subdomain:
      - simonneutert
    body:
      encoding: UTF-8
      string: '{"type":"list","page":1,"page_size":10,"total_pages":22,"total_entries":215,"has_more":true,"entries":[{"type":"expense_voucher","id":7,"name":"B-00003
        - 2019-12-12","due_date":null,"document_date":"2019-12-12","description":"","entertainment_reason":"","flagged":null,"provenance":"domestic","voucher_no":"B-00003","state":null,"record_state":"active","amount":119.0,"invoice_amount":0.0,"entertainment_persons":[]},{"type":"expense_voucher","id":10,"name":"B-00004
        - 2020-01-03","due_date":null,"document_date":"2020-01-03","description":"","entertainment_reason":"","flagged":null,"provenance":"domestic","voucher_no":"B-00004","state":"unpaid","record_state":"active","amount":119.0,"invoice_amount":0.0,"entertainment_persons":[]},{"type":"expense_voucher","id":13,"name":"B-00005
        - 2020-01-07","due_date":"2020-01-07","document_date":"2020-01-07","description":"","entertainment_reason":"","flagged":false,"provenance":"domestic","voucher_no":"B-00005","state":"unpaid","record_state":"active","amount":-119.0,"invoice_amount":0.0,"entertainment_persons":[]},{"type":"expense_voucher","id":16,"name":"B-00006
        - 2020-01-08","due_date":"2020-01-08","document_date":"2020-01-08","description":"","entertainment_reason":"","flagged":false,"provenance":"domestic","voucher_no":"B-00006","state":"unpaid","record_state":"active","amount":119.0,"invoice_amount":0.0,"entertainment_persons":[]},{"type":"expense_voucher","id":19,"name":"B-00007
        - 2020-01-09","due_date":"2020-01-09","document_date":"2020-01-09","description":"","entertainment_reason":"","flagged":false,"provenance":"domestic","voucher_no":"B-00007","state":"unpaid","record_state":"active","amount":119.0,"invoice_amount":0.0,"entertainment_persons":[]},{"type":"expense_voucher","id":22,"name":"B-00008
        - 2020-01-10","due_date":"2020-01-10","document_date":"2020-01-10","description":"","entertainment_reason":"","flagged":false,"provenance":"domestic","voucher_no":"B-00008","state":"unpaid","record_state":"active","amount":119.0,"invoice_amount":0.0,"entertainment_persons":[]},{"type":"expense_voucher","id":25,"name":"B-00009
        - 2020-01-11","due_date":"2020-01-11","document_date":"2020-01-11","description":"","entertainment_reason":"","flagged":false,"provenance":"domestic","voucher_no":"B-00009","state":"unpaid","record_state":"active","amount":119.0,"invoice_amount":0.0,"entertainment_persons":[]},{"type":"expense_voucher","id":28,"name":"B-00010
        - 2020-01-12","due_date":"2020-01-12","document_date":"2020-01-12","description":"","entertainment_reason":"","flagged":false,"provenance":"domestic","voucher_no":"B-00010","state":"unpaid","record_state":"active","amount":119.0,"invoice_amount":0.0,"entertainment_persons":[]},{"type":"expense_voucher","id":31,"name":"B-00011
        - 2020-01-13","due_date":"2020-01-13","document_date":"2020-01-13","description":"","entertainment_reason":"","flagged":false,"provenance":"domestic","voucher_no":"B-00011","state":"unpaid","record_state":"active","amount":119.0,"invoice_amount":0.0,"entertainment_persons":[]},{"type":"expense_voucher","id":34,"name":"B-00012
        - 2020-01-14","due_date":"2020-01-14","document_date":"2020-01-14","description":"","entertainment_reason":"","flagged":false,"provenance":"domestic","voucher_no":"B-00012","state":"unpaid","record_state":"active","amount":119.0,"invoice_amount":0.0,"entertainment_persons":[]}]}'
  recorded_at: Sun, 16 Apr 2023 11:20:49 GMT
- request:
    method: get
    uri: https://simonneutert.papierkram.de/api/v1/expense/vouchers/7
    body:
      encoding: US-ASCII
      string: ''
    headers:
      User-Agent:
      - Faraday v2.7.4
      Authorization:
      - Bearer <API BEARER>
  response:
    status:
      code: 200
      message: OK
    headers:
      content-type:
      - application/json; charset=utf-8
      status:
      - 200 OK
      cache-control:
      - no-store
      access-control-allow-origin:
      - "*"
      vary:
      - Accept
      referrer-policy:
      - strict-origin-when-cross-origin
      x-remaining-quota:
      - '8774'
      x-permitted-cross-domain-policies:
      - none
      pragma:
      - no-cache
      x-request-id:
      - 4f86918e-834e-41e3-9439-aa96b1f7e96c
      x-download-options:
      - noopen
      etag:
      - W/"011ea386eb6dd46076a1a20316112d2d"
      x-frame-options:
      - SAMEORIGIN
      x-runtime:
      - '0.155101'
      expires:
      - Fri, 01 Jan 1990 00:00:00 GMT
      date:
      - Sun, 16 Apr 2023 11:20:50 GMT
      set-cookie:
      - redis_session_store=<UNICORN>; path=/; expires=Sun, 30 Apr 2023 11:20:50 GMT;
        HttpOnly; SameSite=Lax
      x-powered-by:
      - Phusion Passenger(R) 6.0.15
      server:
      - nginx/1.18.0 + Phusion Passenger(R) 6.0.15
      x-version:
      - STABLE
      x-robots-tag:
      - noindex, nofollow;
      strict-transport-security:
      - max-age=31536000; includeSubdomains;;
      x-xss-protection:
      - 1; mode=block;
      x-content-type-options:
      - nosniff;
      x-debug-subdomain:
      - simonneutert
    body:
      encoding: UTF-8
      string: '{"type":"expense_voucher","id":7,"name":"B-00003 - 2019-12-12","due_date":null,"document_date":"2019-12-12","description":"","entertainment_reason":"","flagged":null,"provenance":"domestic","voucher_no":"B-00003","state":null,"record_state":"active","amount":119.0,"invoice_amount":0.0,"entertainment_persons":[],"creditor":null,"line_items":[{"name":"2019-12-12","amount":119.0,"category":"Bewirtungskosten","vat_rate":"19%","billing":null,"depreciation":null}],"documents":[]}'
  recorded_at: Sun, 16 Apr 2023 11:20:50 GMT
recorded_with: VCR 6.1.0
